-24 8 -48 -40 -40 -88 -8 -24 -32 608
-32 -8 -8 64 -32 -24 -8 -80 672
-32 -8 -16 -8 -16 -72 -80 704
-16 -8 -8 -8 -80 -40 784
-40 -48 -56 16 -40 -32 -48 -72 -24 544
-40 -40 -64 -32 -48 8 -40 -32 -80 -16 512
-8 -8 120 -80 -24 712
-16 -40 -32 16 -64 -24 -72 672
-16 -24 -32 144 -32 -40 656
8 -72 -8 -16 -56 -64 720
-40 -72 -8 -24 88 -32 -56 -16 592
-32 -24 -8 -24 -80 -8 -32 -56 -24 -48 576
-24 -48 -8 8 -16 -8 -80 744
-40 -32 24 -16 -64 -48 -24 -56 -56 -80 472
-32 -8 16 -8 -16 -72 -80 -72 624
-24 -16 -16 -64 -8 -16 800
-16 -48 40 -40 24 -48 -32 -64 616
-40 -24 -48 16 -64 -24 -56 -80 -24 544
-16 -72 -48 64 -8 -40 696
-16 8 -48 -8 -40 -32 -72 -24 -72 -80 512
-32 -16 24 -64 -48 -24 -56 -80 -48 528
-40 -24 -80 -80 -8 24 -64 -8 -48 544
-8 -64 -8 -24 856
