27

13
12
15
-1
12
-2
-1

5
3
-2
-1
2
2
4
-1

4
14
4
2
1
-4
-3
-3
-1

9
14
14
3
11
7
-4
-4
-2
-1

7
-1
10
7
1
12
-1
-2

11
4
11
-2
4
3
12
9
-5
-5
-2
-2
-2

3
4
10
-2
-1

14
12
-2
-1
3
-1

10
5
8
10
-2
-3
-2
-1

8
2
2
-1
-1
2
6
-2
-1
-1

5
1
15
-1
-1
-1
14
-1

6
1
3
6
-1
-2
-2
4
3
15
7
-1
-3
-2
-1

14
10
12
-3
4
14
9
-4
-3
-2
-1

8
15
4
2
-4
7

8
-1
3
5
11

2
7
-2
-1
5
7

8
-1
4

3
14
-1

6
15
2
-2
-2
-1
1
10
14
9
-2
-2

10
5
13
2
4
-2
-2

15
4
11
13
-4
-1
-2
3
14
2
1
-4
-2
-2

1
13
10
7
-1
-3
-1
-1
3
-1

6
1
-1
7
11
7
-3
-1
-2

14
5
6
4
-2
-3
-1
-1
11
13
1
6
-3
-3
-2
-1

11
9
5
10
-1
-2
7
-1
-1

5
1
6
-1
-2
-1
5
6
2
-1

13
2
8
-3
-1
10
8
15
8
