25

9
2
8
8
1
4

3
9
3
-2
-2
-1
9
4
8
-1
-1
-1

5
-1
6
-1

9
3
6
8
3
-3
-2
2
9
7
-1
-5
-2
-1
-1

2
1
3
8
-3
-3
-1
-1
10
8
10
4

4
2
5
4
10
-1

2
8
-1
7
7
10

2
7
9
1
-3
-1

10
7
-1

3
10
4
-3
-2
-1
4
10
-1

10
3
10
-2
-2
-1
10
1
9
-2

9
5
5
1
-2
-2
8
10
9
2
9
-6

4
8

4
4
3
7
-3
-3
4
6
10
5

9
6
-2
8
-1
-1

5
1
8
-2
-2
6
-1

6
3
-1
7
8
10
4
1
-5
-5
-3
-1

2
6
9
7
7
4
9
3
1
-9

6
10
8

10
3
6
1
5
-1
-2
-3
10
5
3
-3
-2
-3

4
2
9
9
8
-4
10
10
-6
-3
-3
-2
-1
-1

4
-1
4
8
7
-3
-2
-1

2
9
4
3
-3
-2
-2
7
7
5
-1
-1
-1

4
-1
3
1
6
4
-3
-2
-1

1
8
8
9
1
-5
-3
-1
-2
2
8
4
4
-3
