-48 32 -48 -88 -112 120 -96 -144 -128 104
-48 -128 -56 -208 40 -168 -72 -88 120
-8 32 -112 -64 -72 -232 -144 272
-72 -40 -168 -16 48 -8 40 -32 -56 -64 -184 176
136 -136 -184 -232 272
-112 216 -216 -72 344
448 -96 -144 -200 72
56 -200 -144 -72 488
-200 -24 -72 -8 -96 -48 -128 -88 -144 -56 48
-72 8 -8 -32 -120 8 -168 -64 -216 -72 144
-56 -8 -112 -176 -48 -64 -128 344
-88 72 -48 -48 -128 -224 336
8 -56 -224 -120 24 -112 128 -16 -64 168
-72 -64 176 -64 -112 464
-48 -40 64 -176 -104 -72 -88 -184 152
-32 -88 -112 -72 192 -120 -232 88
992
-168 -16 -144 -64 -32 -216 -16 -216 56
-96 -16 -24 -104 -392 -56 -56 8 -8 -32 120
-64 8 -32 -8 -24 -64 -16 -72 -24 -208 -48 -184 144
-144 64 -144 232 -8 -56 296
-112 64 -64 -64 -152 -224 264
