20

4
8
9
-2
5
-1
4
6
7
-4

3
4
3
-2
4
-2
7
3
8
-5

9
6
5
-3
8
-3
8
8
5
-5

6
6
9
-1
3
-1
5
9
5
-2

8
5
4
-2
3
-1
6
3
7
-5

6
6
3
-3
3
-3
5
4
4
-1

8
9
9
-2
5
-2
5
3
5
-2

9
4
3
-3
6
-3
8
3
9
-3

6
8
7
-2
7
-1
6
9
7
-2

5
6
5
-1
5
-2
3
6
6
-4

3
3
3
-3
7
-3
8
7
8
-4

8
9
7
-2
8
-1
3
7
3
-3

7
4
6
-3
7
-2
5
9
7
-3

8
8
9
-1
9
-1
6
5
8
-4

6
6
8
-1
4
-2
4
7
5
-1

6
5
8
-3
4
-2
9
6
9
-5

8
5
3
-1
8
-3
3
8
6
-1

5
8
4
-2
4
-1
9
8
7
-3

9
7
5
-3
6
-2
6
9
8
-5

3
9
6
-3
5
-2
3
5
6
-3
