-8 -24 -48 24 -8 -48 -32 744
32 -8 -24 904
-16 -40 32 -48 824
8 -8 -16 -48 -24 848
-40 -16 -8 48 -8 -48 776
8 -24 -40 -32 -40 -48 -16 728
8 -40 -24 -48 -32 -40 752
-8 -48 -8 904
-40 -32 -8 -48 -32 -8 776
-40 -48 888
16 -8 -24 920
-48 -40 -8 -16 8 -16 -32 768
-48 -24 -40 -16 -8 -24 784
48 -24 -40 856
992
-40 -8 -24 -24 -8 848
-24 -32 88 -48 768
-8 -24 -8 -8 912
-16 16 -40 -16 -48 -24 784
-24 64 -48 -16 -40 -16 736
-24 -16 -8 -40 872
8 -8 -32 920
-24 8 -32 -16 -48 824
-40 -40 896
48 -32 -48 -40 792
