-8 56 -24 -48 -64 -40 -16 -32 -16 -32 -16 -80 -40 -72 -72 -64 184
40 -72 864
80 -8 -72 -64 -80 -80 -48 -80 416
-40 -56 880
-32 -32 912
-80 904
48 -48 -40 -32 -72 712
-56 -16 -16 -56 -24 -72 -24 672
-48 8 -8 -48 -64 -56 -48 -16 -80 -64 -72 -72 -16 288
112 -48 -40 -56 -56 -56 -48 -80 -64 -32 320
64 -80 -24 -32 -24 -56 -72 -72 -56 -80 -64 -72 200
-72 -24 -72 -48 -64 -32 632
-40 -24 -8 16 -16 -8 -8 -48 -32 -80 -56 -80 480
-48 -56 -80 -64 -80 -64 -48 -40 -24 -56 -56 -32 -8 232
-8 24 -48 -48 832
48 -16 -80 -64 752
56 -56 -24 -56 -64 -80 608
-16 -8 -64 -48 -40 776
-32 952
16 -40 -24 888
