20

9
3
6
8
5
2
-1
2
3
1
4
2
4
2
10
5
-1
9
-1
1
-1
9
8
-1
1

7
-1
5
9
-1

7
-1
4
-1
5
6
-1
9
8
-1
8
10
10
-1
10
1
-1
10
6
-1
2
7
-1
10
-1
5
-1
3
-1

5
7

2
-1
4
4

10

3
2
6
5
-1
3
4
-1
9
-1

2
-1
10
2
7
3
-1
7
2
9
-1
4
3
-1
7

8
1
6
-1
1
8
7
1
6
1
1
2
-1
10
-1
8
-1
9
-1
9
5
-1
1
-1
8
2
-1
6

3
10
6
-1
5
1
7
7
-1
7
2
6
-1
10
8
4
-1
10
-1

4
-1
6
1
10
3
-1
6
-1
3
4
3
-1
7
-1
4
9
1
9
-1
7
10
8
9
-1

9
3
9
6
8
4

8
5
2
1
1
6
4
-1
4
-1
7
-1
3
-1
10
-1
9
7
1
-1
5
10
2

6
7
10
-1
8
4
10
8
6
5
-1
6
-1
6
3
7
-1
7
6
4
-1
6
1
-1
5

5
6
-1
6
1

6
2
-1
4
-1
5
-1
4
-1
10
8

3
-1
2
4
7
-1
3
-1
1
1
7
-1
8
10
-1
5
-1

4
8
6
-1
4
-1
2
5
1

1
-1
4

2
5
3
-1
