27

8
-1
8
10
4
8

7
-1
7
-1

2
1
-1
9

9
10
4
2
-4
-3
3
9
4

2
-1
7
-1
1
2
6
-2
2

9
-1
3
4
-1
10
5

4
-1
4
-1
9
-1
10
1

9
10
7
-3

10
-1
10

7
8
-2

2
5
7

10
1
-2
6
-2
7
10
3
-1

5
-1
8
-1
4
-1
10
-1
9
3

5
-1
7
9
5
6
-4
10
-3

2
-1
3
5
-1
-1
7
-1

9
1
4

10
10
-2
-1
7
-1

3
2
5
-3
-2
3
4
-1
5

6
2
-1
8
-2
1
-1

1
-1
10
-1
6
-1
7
9
-2
-1

10
-1
3
-1
8
4
-2

6
-1
7
2
-2
-1
9
-1
7

7
6
3
-2
-2
9
3
-2

9
-1
8
1
10
-2
4
5
-2
10

9
9
1

10
-1
2
-1
2

5
-1
8
