-64 -80 -32 -64 720
992
16 -8 -72 872
-72 -80 -24 -72 -32 672
-8 -16 -48 896
24 -32 -80 -40 784
-80 -8 888
-72 -80 824
-80 904
-56 928
-16 -40 -56 856
80 -56 -80 -24 720
-72 -24 880
-56 -72 40 -80 712
992
-72 -8 -32 856
992
24 -24 -32 -40 840
48 -16 912
992
-64 920
-56 928
-56 72 -24 816
-64 -80 8 -32 -40 728
-72 -72 -8 816
-16 968
-64 920
